^F:\VISUALSTUDIOPROJECTS\MODULES\CONSOLEAPPLICATION1\DEBUG\MODULES.OBJ
F:\VISUALSTUDIOPROJECTS\MODULES\CONSOLEAPPLICATION1\DEBUG\MODULES.ILK
F:\VISUALSTUDIOPROJECTS\MODULES\CONSOLEAPPLICATION1\DEBUG\MODULES.EXE
F:\VISUALSTUDIOPROJECTS\MODULES\CONSOLEAPPLICATION1\DEBUG\MODULES.PDB
